…
## Loading and preprocessing the data
Data loading and converting `date` variable to date format.

```r
data <- read.csv('activity.csv',col.names = c('steps','date','interval'),
                 na.strings = 'NA')
data <- tbl_df(data)
data <- mutate(data, date = as.Date(date,'%Y-%m-%d'))
data
```

```
## # A tibble: 17,568 x 3
##    steps date       interval
##    <int> <date>        <int>
##  1    NA 2012-10-01        0
##  2    NA 2012-10-01        5
##  3    NA 2012-10-01       10
##  4    NA 2012-10-01       15
##  5    NA 2012-10-01       20
##  6    NA 2012-10-01       25
##  7    NA 2012-10-01       30
##  8    NA 2012-10-01       35
##  9    NA 2012-10-01       40
## 10    NA 2012-10-01       45
## # … with 17,558 more rows
```
…
And the 5-minute interval with the **maximum average** of steps is 
835.

## Imputing missing values
The total number of *NA*'s is 2304, filling those 
values with the step's mean for that interval. Creating a new dataset with the *NA*'s
values filled in.

```r
data
```

```
## # A tibble: 17,568 x 3
##    steps date       interval
##    <int> <date>        <int>
##  1    NA 2012-10-01        0
##  2    NA 2012-10-01        5
##  3    NA 2012-10-01       10
##  4    NA 2012-10-01       15
##  5    NA 2012-10-01       20
##  6    NA 2012-10-01       25
##  7    NA 2012-10-01       30
##  8    NA 2012-10-01       35
##  9    NA 2012-10-01       40
## 10    NA 2012-10-01       45
## # … with 17,558 more rows
```
…
```r
data
```

```
## # A tibble: 17,568 x 3
##     steps date       interval
##     <dbl> <date>        <int>
##  1 1.72   2012-10-01        0
##  2 0.340  2012-10-01        5
##  3 0.132  2012-10-01       10
##  4 0.151  2012-10-01       15
##  5 0.0755 2012-10-01       20
##  6 2.09   2012-10-01       25
##  7 0.528  2012-10-01       30
##  8 0.868  2012-10-01       35
##  9 0      2012-10-01       40
## 10 1.47   2012-10-01       45
## # … with 17,558 more rows
```
…
